new stageSRC(6,
new int[,] {
{0,2,0,0,0,0},
{0,2,0,0,0,0},
{0,0,2,2,2,0},
{0,2,0,0,0,2},
{0,2,0,0,0,2},
{0,2,0,0,0,2}
},
new int[,] {
{0,0,0,0,0,0},
{0,2,0,0,0,2},
{0,0,2,0,2,0},
{0,2,0,0,0,2},
{0,0,0,0,0,0},
{0,0,0,0,0,0}
},
new int[] {0,3,0,0,4,0,1},
new int[] {0,0,4,1,0,0,1,0,0,1},
8
)

