new stageSRC(8,
new int[,] {
{0,0,0,0,4,0,0,0},
{0,0,0,0,4,0,0,0},
{0,0,0,0,4,0,0,0},
{4,4,4,4,4,0,0,0},
{0,0,0,2,2,2,2,2},
{0,0,0,2,0,0,0,0},
{0,0,0,2,0,0,0,0},
{0,0,0,2,0,0,0,0}
},
new int[,] {
{4,4,4,4,4,4,2,2},
{2,2,4,2,4,4,4,4},
{2,4,4,2,4,4,2,2},
{4,4,4,4,4,4,4,4},
{2,2,4,2,2,4,2,2},
{2,4,4,2,4,4,4,4},
{2,2,4,2,2,4,2,2},
{2,4,4,2,4,4,4,4}
},
new int[] {0,1,0,4,0,1,0},
new int[] {0,0,4,0,1,0,0,0,0,0},
6
)

