new stageSRC(6,
new int[,] {
{1,0,0,0,3,0},
{1,4,4,4,3,0},
{1,0,5,0,3,0},
{1,0,5,0,3,0},
{1,2,2,2,2,2},
{1,0,0,0,0,0}
},
new int[,] {
{0,0,0,0,0,0},
{0,0,0,0,0,0},
{0,0,0,0,0,0},
{0,0,0,0,0,0},
{1,0,0,0,0,0},
{1,0,0,0,0,0}
},
new int[] {0,1,1,1,2,4,0},
new int[] {0,0,2,0,0,1,2,0,0,0},
9
)

