new stageSRC(8,
new int[,] {
{0,0,0,0,0,0,0,0},
{0,0,0,0,0,0,0,0},
{0,0,1,1,1,1,0,0},
{0,0,1,1,1,1,0,0},
{0,0,1,1,1,1,0,0},
{0,0,1,1,1,1,0,0},
{0,0,0,0,0,0,0,0},
{0,0,0,0,0,0,0,0}
},
new int[,] {
{1,1,1,1,1,3,3,3},
{1,1,1,1,1,3,3,3},
{1,1,1,1,1,3,3,3},
{1,1,1,1,1,3,3,3},
{1,1,1,3,3,3,3,3},
{1,1,1,3,3,3,3,3},
{1,1,1,3,3,3,3,3},
{1,1,1,3,3,3,3,3}
},
new int[] {0,0,0,5,1,1,0},
new int[] {0,0,4,2,0,0,0,0,0,0},
7
)

