new stageSRC(8,
new int[,] {
{0,4,4,4,0,0,0,4},
{0,0,0,4,4,4,4,4},
{0,2,4,4,0,0,4,0},
{0,0,4,0,0,0,4,0},
{0,0,4,0,0,0,4,0},
{0,2,4,4,0,0,4,0},
{0,0,0,4,4,4,4,4},
{0,4,4,4,0,0,0,4}
},
new int[,] {
{0,0,0,0,0,0,0,0},
{0,0,0,0,0,0,0,0},
{0,0,0,0,0,0,0,0},
{0,0,0,0,0,0,0,0},
{0,0,0,0,0,0,0,0},
{0,0,0,0,0,0,0,0},
{0,0,0,0,0,0,0,0},
{0,0,0,0,0,0,0,0}
},
new int[] {0,4,0,3,3,1,1},
new int[] {0,0,2,4,0,1,1,2,0,0},
12
)

