new stageSRC(6,
new int[,] {
{0,0,0,0,0,0},
{0,0,0,0,0,0},
{0,0,0,0,0,0},
{0,0,0,0,0,0},
{0,0,0,0,0,0},
{0,0,0,0,0,0}
},
new int[,] {
{1,1,1,1,1,1},
{1,1,1,1,1,1},
{1,1,1,1,1,1},
{1,1,1,1,1,1},
{1,1,1,1,1,1},
{1,1,1,1,1,1}
},
new int[] {0,6,0,0,0,0,0},
new int[] {0,0,0,0,2,1,1,0,1,1},
6
)

