new stageSRC(8,
new int[,] {
{0,0,0,0,0,0,0,0},
{0,0,0,0,0,0,0,0},
{0,0,0,0,0,0,0,0},
{0,0,0,0,3,0,0,0},
{0,0,0,0,3,0,0,0},
{0,0,0,0,0,0,0,0},
{0,0,0,0,0,0,0,0},
{0,0,0,0,0,0,0,0}
},
new int[,] {
{0,0,0,0,0,0,0,0},
{0,0,0,0,0,0,0,0},
{0,0,0,0,0,0,0,0},
{0,0,0,0,0,0,0,3},
{0,3,3,3,3,0,0,3},
{0,3,3,3,3,0,0,3},
{0,3,3,3,3,0,0,3},
{0,3,3,3,3,3,3,3}
},
new int[] {0,1,2,3,0,0,1},
new int[] {0,0,0,1,0,3,1,0,1,0},
7
)

