new stageSRC(8,
new int[,] {
{0,0,0,0,0,0,0,0},
{0,0,0,0,0,0,0,0},
{0,0,0,0,4,4,0,0},
{0,0,0,0,4,4,0,0},
{0,0,0,0,4,4,0,0},
{0,0,0,0,0,0,0,0},
{0,0,0,0,0,0,0,0},
{0,0,0,0,0,0,0,0}
},
new int[,] {
{4,4,4,4,4,4,0,0},
{3,3,3,3,3,4,0,0},
{0,0,0,0,3,4,0,0},
{0,0,0,0,3,4,0,0},
{0,0,0,0,3,4,0,0},
{0,0,0,0,3,4,1,1},
{3,3,3,3,3,4,1,1},
{4,4,4,4,4,4,0,0}
},
new int[] {0,2,0,3,0,1,0},
new int[] {0,0,0,3,1,0,1,0,0,0},
6
)

