랭킹 폰트 정보

순위,닉네임,Clear문제,레벨
1. 숫자 크키 :  30pt
2. 폰트 : NanumSquare / ExtraBold
3. 자간 : -50
4. 색상값 : 175360


메달 숫자
1. 숫자 크키 :  25pt
2. 폰트 : NanumSquare / ExtraBold
3. 자간 : 0
4. 색상값 : ffffff


ROSE/20/1(닉네임,문제,레벨 본문글자)
1. 숫자 크키 :  25pt
2. 폰트 : NanumSquare / Regular
3. 자간 : -20
4. 색상값 : 3b3b3b