%YAML 1.1
%TAG !u! tag:unity3d.com,2011:
--- !u!1045 &1
EditorBuildSettings:
  m_ObjectHideFlags: 0
  serializedVersion: 2
  m_Scenes:
  - enabled: 1
    path: Assets/Scenes/Title.unity
    guid: 6ace38a48a11ad8428f1ec5f79abbeca
  - enabled: 1
    path: Assets/Scenes/Story.unity
    guid: f96c12b121d9edd49bf30b8cab2e1b02
  - enabled: 1
    path: Assets/Scenes/Play.unity
    guid: 2eac293c81399f74182fc08f9a7e9259
  m_configObjects: {}
