%YAML 1.1
%TAG !u! tag:unity3d.com,2011:
--- !u!74 &7400000
AnimationClip:
  m_ObjectHideFlags: 0
  m_CorrespondingSourceObject: {fileID: 0}
  m_PrefabInstance: {fileID: 0}
  m_PrefabAsset: {fileID: 0}
  m_Name: Customer0
  serializedVersion: 6
  m_Legacy: 0
  m_Compressed: 0
  m_UseHighQualityCurve: 1
  m_RotationCurves: []
  m_CompressedRotationCurves: []
  m_EulerCurves: []
  m_PositionCurves: []
  m_ScaleCurves: []
  m_FloatCurves: []
  m_PPtrCurves:
  - curve:
    - time: 0
      value: {fileID: 21300000, guid: e89c8fcc7c19e6b45aaf447ca94aa840, type: 3}
    - time: 0.016666668
      value: {fileID: 21300002, guid: e89c8fcc7c19e6b45aaf447ca94aa840, type: 3}
    - time: 0.033333335
      value: {fileID: 21300004, guid: e89c8fcc7c19e6b45aaf447ca94aa840, type: 3}
    - time: 0.05
      value: {fileID: 21300006, guid: e89c8fcc7c19e6b45aaf447ca94aa840, type: 3}
    - time: 0.06666667
      value: {fileID: 21300008, guid: e89c8fcc7c19e6b45aaf447ca94aa840, type: 3}
    - time: 0.083333336
      value: {fileID: 21300010, guid: e89c8fcc7c19e6b45aaf447ca94aa840, type: 3}
    - time: 0.1
      value: {fileID: 21300012, guid: e89c8fcc7c19e6b45aaf447ca94aa840, type: 3}
    - time: 0.11666667
      value: {fileID: 21300014, guid: e89c8fcc7c19e6b45aaf447ca94aa840, type: 3}
    - time: 0.13333334
      value: {fileID: 21300016, guid: e89c8fcc7c19e6b45aaf447ca94aa840, type: 3}
    - time: 0.15
      value: {fileID: 21300018, guid: e89c8fcc7c19e6b45aaf447ca94aa840, type: 3}
    - time: 0.16666667
      value: {fileID: 21300020, guid: e89c8fcc7c19e6b45aaf447ca94aa840, type: 3}
    - time: 0.18333334
      value: {fileID: 21300022, guid: e89c8fcc7c19e6b45aaf447ca94aa840, type: 3}
    - time: 0.2
      value: {fileID: 21300024, guid: e89c8fcc7c19e6b45aaf447ca94aa840, type: 3}
    - time: 0.21666667
      value: {fileID: 21300026, guid: e89c8fcc7c19e6b45aaf447ca94aa840, type: 3}
    - time: 0.23333333
      value: {fileID: 21300028, guid: e89c8fcc7c19e6b45aaf447ca94aa840, type: 3}
    - time: 0.25
      value: {fileID: 21300030, guid: e89c8fcc7c19e6b45aaf447ca94aa840, type: 3}
    - time: 0.26666668
      value: {fileID: 21300000, guid: c2a232dc9d0b2314386ed0a2b5a868c7, type: 3}
    - time: 0.28333333
      value: {fileID: 21300002, guid: c2a232dc9d0b2314386ed0a2b5a868c7, type: 3}
    - time: 0.3
      value: {fileID: 21300004, guid: c2a232dc9d0b2314386ed0a2b5a868c7, type: 3}
    - time: 0.31666666
      value: {fileID: 21300006, guid: c2a232dc9d0b2314386ed0a2b5a868c7, type: 3}
    - time: 0.33333334
      value: {fileID: 21300008, guid: c2a232dc9d0b2314386ed0a2b5a868c7, type: 3}
    - time: 0.35
      value: {fileID: 21300010, guid: c2a232dc9d0b2314386ed0a2b5a868c7, type: 3}
    - time: 0.36666667
      value: {fileID: 21300012, guid: c2a232dc9d0b2314386ed0a2b5a868c7, type: 3}
    - time: 0.38333333
      value: {fileID: 21300014, guid: c2a232dc9d0b2314386ed0a2b5a868c7, type: 3}
    - time: 0.4
      value: {fileID: 21300016, guid: c2a232dc9d0b2314386ed0a2b5a868c7, type: 3}
    - time: 0.41666666
      value: {fileID: 21300018, guid: c2a232dc9d0b2314386ed0a2b5a868c7, type: 3}
    - time: 0.43333334
      value: {fileID: 21300020, guid: c2a232dc9d0b2314386ed0a2b5a868c7, type: 3}
    - time: 0.45
      value: {fileID: 21300022, guid: c2a232dc9d0b2314386ed0a2b5a868c7, type: 3}
    - time: 0.46666667
      value: {fileID: 21300024, guid: c2a232dc9d0b2314386ed0a2b5a868c7, type: 3}
    - time: 0.48333332
      value: {fileID: 21300026, guid: c2a232dc9d0b2314386ed0a2b5a868c7, type: 3}
    - time: 0.5
      value: {fileID: 21300028, guid: c2a232dc9d0b2314386ed0a2b5a868c7, type: 3}
    attribute: m_Sprite
    path: 
    classID: 114
    script: {fileID: -765806418, guid: f70555f144d8491a825f0804e09c671c, type: 3}
  m_SampleRate: 60
  m_WrapMode: 0
  m_Bounds:
    m_Center: {x: 0, y: 0, z: 0}
    m_Extent: {x: 0, y: 0, z: 0}
  m_ClipBindingConstant:
    genericBindings:
    - serializedVersion: 2
      path: 0
      attribute: 2015549526
      script: {fileID: -765806418, guid: f70555f144d8491a825f0804e09c671c, type: 3}
      typeID: 114
      customType: 0
      isPPtrCurve: 1
    pptrCurveMapping:
    - {fileID: 21300000, guid: e89c8fcc7c19e6b45aaf447ca94aa840, type: 3}
    - {fileID: 21300002, guid: e89c8fcc7c19e6b45aaf447ca94aa840, type: 3}
    - {fileID: 21300004, guid: e89c8fcc7c19e6b45aaf447ca94aa840, type: 3}
    - {fileID: 21300006, guid: e89c8fcc7c19e6b45aaf447ca94aa840, type: 3}
    - {fileID: 21300008, guid: e89c8fcc7c19e6b45aaf447ca94aa840, type: 3}
    - {fileID: 21300010, guid: e89c8fcc7c19e6b45aaf447ca94aa840, type: 3}
    - {fileID: 21300012, guid: e89c8fcc7c19e6b45aaf447ca94aa840, type: 3}
    - {fileID: 21300014, guid: e89c8fcc7c19e6b45aaf447ca94aa840, type: 3}
    - {fileID: 21300016, guid: e89c8fcc7c19e6b45aaf447ca94aa840, type: 3}
    - {fileID: 21300018, guid: e89c8fcc7c19e6b45aaf447ca94aa840, type: 3}
    - {fileID: 21300020, guid: e89c8fcc7c19e6b45aaf447ca94aa840, type: 3}
    - {fileID: 21300022, guid: e89c8fcc7c19e6b45aaf447ca94aa840, type: 3}
    - {fileID: 21300024, guid: e89c8fcc7c19e6b45aaf447ca94aa840, type: 3}
    - {fileID: 21300026, guid: e89c8fcc7c19e6b45aaf447ca94aa840, type: 3}
    - {fileID: 21300028, guid: e89c8fcc7c19e6b45aaf447ca94aa840, type: 3}
    - {fileID: 21300030, guid: e89c8fcc7c19e6b45aaf447ca94aa840, type: 3}
    - {fileID: 21300000, guid: c2a232dc9d0b2314386ed0a2b5a868c7, type: 3}
    - {fileID: 21300002, guid: c2a232dc9d0b2314386ed0a2b5a868c7, type: 3}
    - {fileID: 21300004, guid: c2a232dc9d0b2314386ed0a2b5a868c7, type: 3}
    - {fileID: 21300006, guid: c2a232dc9d0b2314386ed0a2b5a868c7, type: 3}
    - {fileID: 21300008, guid: c2a232dc9d0b2314386ed0a2b5a868c7, type: 3}
    - {fileID: 21300010, guid: c2a232dc9d0b2314386ed0a2b5a868c7, type: 3}
    - {fileID: 21300012, guid: c2a232dc9d0b2314386ed0a2b5a868c7, type: 3}
    - {fileID: 21300014, guid: c2a232dc9d0b2314386ed0a2b5a868c7, type: 3}
    - {fileID: 21300016, guid: c2a232dc9d0b2314386ed0a2b5a868c7, type: 3}
    - {fileID: 21300018, guid: c2a232dc9d0b2314386ed0a2b5a868c7, type: 3}
    - {fileID: 21300020, guid: c2a232dc9d0b2314386ed0a2b5a868c7, type: 3}
    - {fileID: 21300022, guid: c2a232dc9d0b2314386ed0a2b5a868c7, type: 3}
    - {fileID: 21300024, guid: c2a232dc9d0b2314386ed0a2b5a868c7, type: 3}
    - {fileID: 21300026, guid: c2a232dc9d0b2314386ed0a2b5a868c7, type: 3}
    - {fileID: 21300028, guid: c2a232dc9d0b2314386ed0a2b5a868c7, type: 3}
  m_AnimationClipSettings:
    serializedVersion: 2
    m_AdditiveReferencePoseClip: {fileID: 0}
    m_AdditiveReferencePoseTime: 0
    m_StartTime: 0
    m_StopTime: 0.51666665
    m_OrientationOffsetY: 0
    m_Level: 0
    m_CycleOffset: 0
    m_HasAdditiveReferencePose: 0
    m_LoopTime: 1
    m_LoopBlend: 0
    m_LoopBlendOrientation: 0
    m_LoopBlendPositionY: 0
    m_LoopBlendPositionXZ: 0
    m_KeepOriginalOrientation: 0
    m_KeepOriginalPositionY: 1
    m_KeepOriginalPositionXZ: 0
    m_HeightFromFeet: 0
    m_Mirror: 0
  m_EditorCurves: []
  m_EulerEditorCurves: []
  m_HasGenericRootTransform: 0
  m_HasMotionFloatCurves: 0
  m_Events: []
