랭킹 폰트 정보

메달
1. 숫자 크키 :  14pt
2. 폰트 : BM HANNA 11yrs old 
3. 자간 : -75
4. 색상값 : 000000

점수/시간/닉넴
1. 숫자 크키 :  15pt
2. 폰트 : BM HANNA 11yrs old
3. 자간 : 0
4. 색상값 : 000000

레벨
점수/시간/닉넴
1. 숫자 크키 :  14pt
2. 폰트 : BM HANNA 11yrs old
3. 자간 : -50
4. 색상값 : ffffff

